Functions for analyzing fatality data FARS
…
using a wrapper function fars_read_years to read data

For reading data of a specific year, one can also directly furnish the year of interest to the function fars_read_years without the need to construct a file name first as for the function fars_read shown above. The function can also read data from several years.The argument in that case is a vector of years.

For the demonstration purpose, we will need set the working directory to where the files are located within the package funcFars. In the acutal usage, you would need to put these files in your working directory.

oldwd <- getwd()
setwd(system.file("extdata", package = "funcFARS"))
fars_read_years(c(2013,2015))
#> [[1]]
#> # A tibble: 30,202 x 2
#>    MONTH  year
#>    <int> <dbl>
#>  1     1  2013
#>  2     1  2013
#>  3     1  2013
#>  4     1  2013
#>  5     1  2013
#>  6     1  2013
#>  7     1  2013
#>  8     1  2013
#>  9     1  2013
#> 10     1  2013
#> # ... with 30,192 more rows
#> 
#> [[2]]
#> # A tibble: 32,166 x 2
#>    MONTH  year
#>    <int> <dbl>
#>  1     1  2015
#>  2     1  2015
#>  3     1  2015
#>  4     1  2015
#>  5     1  2015
#>  6     1  2015
#>  7     1  2015
#>  8     1  2015
#>  9     1  2015
#> 10     1  2015
#> # ... with 32,156 more rows
…
